{
    "err": 0, 
    "msg": "", 
    "data":{
        "current_page": 1,
        "data": [
            {
                "id": 1, 
                "name": "2014年6月小微企业百度", 
                "content": "G宝盆首页G宝盆首页G宝盆首页G宝盆首页G宝盆首页G宝盆首页G宝盆首页G宝盆首页G宝盆首页G宝盆首页G宝盆首页G宝盆首页sdddddddddddddddddddddddddddddddddddddddddddddddddddddddddsdfs", 
                "telephone": "12345678912",
                "email" : "12345678@qq.com",
                "creat_time": "2014-10-14",
                "status": "0"
            }, 
            {
                "id": 2, 
                "name": "2014年6月小微企业百度", 
                "content": "G宝盆首页G宝盆首页G宝盆首页G宝盆首页G宝盆首页G宝盆首页G宝盆首页G宝盆首页G宝盆首页G宝盆首页G宝盆首页G宝盆首页sdddddddddddddddddddddddddddddddddddddddddddddddddddddddddsdfs", 
                "telephone": "12345678912",
                "email" : "12345678@qq.com",
                "creat_time": "2014-10-14",
                "status": "1"
            }, 
            {
                "id": 3, 
                "name": "2014年6月小微企业百度", 
                "content": "G宝盆首页G宝盆首页G宝盆首页G宝盆首页G宝盆首页G宝盆首页G宝盆首页G宝盆首页G宝盆首页G宝盆首页G宝盆首页G宝盆首页sdddddddddddddddddddddddddddddddddddddddddddddddddddddddddsdfs", 
                "telephone": "12345678912",
                "email" : "12345678@qq.com",
                "creat_time": "2014-10-14",
                "status": "1"
            }, 
            {
                "id": 4, 
                "name": "2014年6月小微企业百度", 
                "content": "G宝盆首页G宝盆首页G宝盆首页G宝盆首页G宝盆首页G宝盆首页G宝盆首页G宝盆首页G宝盆首页G宝盆首页G宝盆首页G宝盆首页sdddddddddddddddddddddddddddddddddddddddddddddddddddddddddsdfs", 
                "telephone": "12345678912",
                "email" : "12345678@qq.com",
                "creat_time": "2014-10-14",
                "status": "1"
            }, 
            {
                "id": 5, 
                "name": "2014年6月小微企业百度", 
                "content": "G宝盆首页G宝盆首页G宝盆首页G宝盆首页G宝盆首页G宝盆首页G宝盆首页G宝盆首页G宝盆首页G宝盆首页G宝盆首页G宝盆首页sdddddddddddddddddddddddddddddddddddddddddddddddddddddddddsdfs", 
                "telephone": "12345678912",
                "email" : "12345678@qq.com",
                "creat_time": "2014-10-14",
                "status": "1"
            }
        ],
        "from": 1,
        "last_page": 5,
        "per_page": 10,
        "to": 10,
        "total": 50
    }
}